simulation/qsim/AifryerController.msim.vcd
$comment
	File created using the following command:
		vcd file AifryerController.msim.vcd -direction
$end
$date
	Sun Jun  2 10:54:50 2024
$end
$version
	Questa Intel Starter FPGA Edition Version 2023.3
$end
$timescale
	1ps
$end

$scope module temperaturecontrol_vhd_vec_tst $end
$var wire 1 ! clk $end
$var wire 1 " reset $end
$var wire 1 # temp_down $end
$var wire 1 $ temp_set [7] $end
$var wire 1 % temp_set [6] $end
$var wire 1 & temp_set [5] $end
$var wire 1 ' temp_set [4] $end
$var wire 1 ( temp_set [3] $end
$var wire 1 ) temp_set [2] $end
$var wire 1 * temp_set [1] $end
$var wire 1 + temp_set [0] $end
$var wire 1 , temp_up $end

$scope module i1 $end
$var wire 1 - gnd $end
$var wire 1 . vcc $end
$var wire 1 / unknown $end
$var wire 1 0 devoe $end
$var wire 1 1 devclrn $end
$var wire 1 2 devpor $end
$var wire 1 3 ww_devoe $end
$var wire 1 4 ww_devclrn $end
$var wire 1 5 ww_devpor $end
$var wire 1 6 ww_clk $end
$var wire 1 7 ww_reset $end
$var wire 1 8 ww_temp_up $end
$var wire 1 9 ww_temp_down $end
$var wire 1 : ww_temp_set [7] $end
$var wire 1 ; ww_temp_set [6] $end
$var wire 1 < ww_temp_set [5] $end
$var wire 1 = ww_temp_set [4] $end
$var wire 1 > ww_temp_set [3] $end
$var wire 1 ? ww_temp_set [2] $end
$var wire 1 @ ww_temp_set [1] $end
$var wire 1 A ww_temp_set [0] $end
$var wire 1 B \reset~inputclkctrl_INCLK_bus\ [3] $end
$var wire 1 C \reset~inputclkctrl_INCLK_bus\ [2] $end
$var wire 1 D \reset~inputclkctrl_INCLK_bus\ [1] $end
$var wire 1 E \reset~inputclkctrl_INCLK_bus\ [0] $end
$var wire 1 F \clk~inputclkctrl_INCLK_bus\ [3] $end
$var wire 1 G \clk~inputclkctrl_INCLK_bus\ [2] $end
$var wire 1 H \clk~inputclkctrl_INCLK_bus\ [1] $end
$var wire 1 I \clk~inputclkctrl_INCLK_bus\ [0] $end
$var wire 1 J \temp_set[0]~output_o\ $end
$var wire 1 K \temp_set[1]~output_o\ $end
$var wire 1 L \temp_set[2]~output_o\ $end
$var wire 1 M \temp_set[3]~output_o\ $end
$var wire 1 N \temp_set[4]~output_o\ $end
$var wire 1 O \temp_set[5]~output_o\ $end
$var wire 1 P \temp_set[6]~output_o\ $end
$var wire 1 Q \temp_set[7]~output_o\ $end
$var wire 1 R \clk~input_o\ $end
$var wire 1 S \clk~inputclkctrl_outclk\ $end
$var wire 1 T \temperature[0]~8_combout\ $end
$var wire 1 U \reset~input_o\ $end
$var wire 1 V \reset~inputclkctrl_outclk\ $end
$var wire 1 W \temp_up~input_o\ $end
$var wire 1 X \temp_down~input_o\ $end
$var wire 1 Y \temperature[0]~9\ $end
$var wire 1 Z \temperature[1]~14_combout\ $end
$var wire 1 [ \temperature[1]~15\ $end
$var wire 1 \ \temperature[2]~16_combout\ $end
$var wire 1 ] \temperature[2]~17\ $end
$var wire 1 ^ \temperature[3]~18_combout\ $end
$var wire 1 _ \temperature[3]~19\ $end
$var wire 1 ` \temperature[4]~20_combout\ $end
$var wire 1 a \temperature[4]~21\ $end
$var wire 1 b \temperature[5]~22_combout\ $end
$var wire 1 c \temperature[5]~23\ $end
$var wire 1 d \temperature[6]~24_combout\ $end
$var wire 1 e \temperature[6]~25\ $end
$var wire 1 f \temperature[7]~26_combout\ $end
$var wire 1 g \temperature~10_combout\ $end
$var wire 1 h \temperature~11_combout\ $end
$var wire 1 i \temperature~12_combout\ $end
$var wire 1 j \temperature~13_combout\ $end
$var wire 1 k temperature [7] $end
$var wire 1 l temperature [6] $end
$var wire 1 m temperature [5] $end
$var wire 1 n temperature [4] $end
$var wire 1 o temperature [3] $end
$var wire 1 p temperature [2] $end
$var wire 1 q temperature [1] $end
$var wire 1 r temperature [0] $end
$var wire 1 s \ALT_INV_reset~inputclkctrl_outclk\ $end
$var wire 1 t ALT_INV_temperature [4] $end
$var wire 1 u ALT_INV_temperature [3] $end
$var wire 1 v ALT_INV_temperature [2] $end
$upscope $end
$upscope $end
$enddefinitions $end
#0
$dumpvars
0!
0"
0#
1,
0-
1.
x/
10
11
12
13
14
15
06
07
18
09
0J
0K
1L
0M
1N
0O
0P
0Q
0R
0S
1T
0U
0V
1W
0X
0Y
0Z
1[
0\
0]
0^
1_
0`
0a
0b
1c
0d
0e
0f
0g
0h
0i
1j
1s
0$
0%
0&
1'
0(
1)
0*
0+
0k
0l
0m
0n
0o
0p
0q
0r
1t
xu
1v
1F
1G
1H
0I
1B
1C
1D
0E
0:
0;
0<
1=
0>
1?
0@
0A
$end
#10000
1!
16
1R
1I
1S
1r
0T
1Y
1h
1Z
1J
1A
1+
#20000
0!
06
0R
0I
0S
#30000
1!
16
1R
1I
1S
1q
0r
1T
0Y
0Z
0[
1\
1]
1Z
1[
0J
1K
0\
0]
1^
0A
1@
0+
1*
0^
#40000
0!
06
0R
0I
0S
#50000
1!
16
1R
1I
1S
1r
0T
1Y
0Z
0[
1J
1\
1]
1A
1+
1^
#60000
0!
06
0R
0I
0S
#70000
1!
16
1R
1I
1S
0q
1p
1o
0r
0v
1T
0Y
0^
0_
0\
0]
1Z
1[
1\
1^
1_
1`
1a
0Z
0J
1M
0K
0L
1b
0`
0a
0A
1>
0@
0?
0+
0*
1(
0b
0)
#80000
0!
06
0R
0I
0S
#90000
1!
16
1R
1I
1S
1r
0T
1Y
1Z
1J
1A
1+
#100000
0!
06
0R
0I
0S
#110000
1!
16
1R
1I
1S
1q
0r
1T
0Y
0Z
0[
0h
1i
0\
1Z
1[
0J
1K
1\
0A
1@
0+
1*
#120000
0!
0,
06
08
0W
0R
0I
0Z
0[
0\
0^
0_
1`
1a
1b
1d
1f
0j
0b
0c
0`
1\
1]
0S
1^
0d
1e
0f
#130000
1!
1#
16
19
1X
1R
1I
1j
1S
0q
1r
0T
1Y
1Z
1[
1h
0\
0]
0Z
0[
1J
0K
1\
1]
0^
1A
0@
1+
0*
1^
#140000
0!
06
0R
0I
0S
#150000
1!
16
1R
1I
1S
0r
1T
0Y
1Z
1[
0J
0\
0]
0A
0+
0^
#160000
0!
0#
06
09
0X
0R
0I
0j
0S
#170000
1!
16
1R
1I
1S
#180000
0!
06
0R
0I
0S
#190000
1!
16
1R
1I
1S
#200000
0!
06
0R
0I
0S
#210000
1!
16
1R
1I
1S
#220000
0!
06
0R
0I
0S
#230000
1!
16
1R
1I
1S
#240000
0!
06
0R
0I
0S
#250000
1!
16
1R
1I
1S
#260000
0!
06
0R
0I
0S
#270000
1!
16
1R
1I
1S
#280000
0!
06
0R
0I
0S
#290000
1!
16
1R
1I
1S
#300000
0!
06
0R
0I
0S
#310000
1!
16
1R
1I
1S
#320000
0!
06
0R
0I
0S
#330000
1!
16
1R
1I
1S
#340000
0!
06
0R
0I
0S
#350000
1!
16
1R
1I
1S
#360000
0!
06
0R
0I
0S
#370000
1!
16
1R
1I
1S
#380000
0!
06
0R
0I
0S
#390000
1!
16
1R
1I
1S
#400000
0!
06
0R
0I
0S
#410000
1!
16
1R
1I
1S
#420000
0!
06
0R
0I
0S
#430000
1!
16
1R
1I
1S
#440000
0!
06
0R
0I
0S
#450000
1!
16
1R
1I
1S
#460000
0!
06
0R
0I
0S
#470000
1!
16
1R
1I
1S
#480000
0!
06
0R
0I
0S
#490000
1!
16
1R
1I
1S
#500000
0!
06
0R
0I
0S
#510000
1!
16
1R
1I
1S
#520000
0!
06
0R
0I
0S
#530000
1!
16
1R
1I
1S
#540000
0!
06
0R
0I
0S
#550000
1!
16
1R
1I
1S
#560000
0!
06
0R
0I
0S
#570000
1!
16
1R
1I
1S
#580000
0!
06
0R
0I
0S
#590000
1!
16
1R
1I
1S
#600000
0!
06
0R
0I
0S
#610000
1!
16
1R
1I
1S
#620000
0!
06
0R
0I
0S
#630000
1!
16
1R
1I
1S
#640000
0!
06
0R
0I
0S
#650000
1!
16
1R
1I
1S
#660000
0!
06
0R
0I
0S
#670000
1!
16
1R
1I
1S
#680000
0!
06
0R
0I
0S
#690000
1!
16
1R
1I
1S
#700000
0!
06
0R
0I
0S
#710000
1!
16
1R
1I
1S
#720000
0!
06
0R
0I
0S
#730000
1!
16
1R
1I
1S
#740000
0!
06
0R
0I
0S
#750000
1!
16
1R
1I
1S
#760000
0!
06
0R
0I
0S
#770000
1!
16
1R
1I
1S
#780000
0!
06
0R
0I
0S
#790000
1!
16
1R
1I
1S
#800000
0!
06
0R
0I
0S
#810000
1!
16
1R
1I
1S
#820000
0!
06
0R
0I
0S
#830000
1!
16
1R
1I
1S
#840000
0!
06
0R
0I
0S
#850000
1!
16
1R
1I
1S
#860000
0!
06
0R
0I
0S
#870000
1!
16
1R
1I
1S
#880000
0!
06
0R
0I
0S
#890000
1!
16
1R
1I
1S
#900000
0!
06
0R
0I
0S
#910000
1!
16
1R
1I
1S
#920000
0!
06
0R
0I
0S
#930000
1!
16
1R
1I
1S
#940000
0!
06
0R
0I
0S
#950000
1!
16
1R
1I
1S
#960000
0!
06
0R
0I
0S
#970000
1!
16
1R
1I
1S
#980000
0!
06
0R
0I
0S
#990000
1!
16
1R
1I
1S
